{
	"extends": "tslint-config-airbnb",
	"rules": {
		"max-line-length": [ true, 120 ],
		"variable-name": [ true, "check-format", "allow-pascal-case" ],
		"import-name": false,
		"semicolon": [
			true, "always"
		],
		"indent": [
			true,
			"tabs"
		],
		"ter-indent": [
			true,
			"tab"
		],
		"ter-arrow-parens": [
			true,
			"as-needed",
			{ "requireForBlockBody": false }
		]
	}
}